09-Solutions-Data-Manipulation
…
In [7]:

nrow(unique(diamonds))

53794

We could instead use a row number to distinguish between records:

In [8]:

diamonds %>%
  mutate(row_n = row_number()) %>%
  print()

# A tibble: 53,940 x 11
   carat cut       color clarity depth table price     x     y     z row_n
   <dbl> <ord>     <ord> <ord>   <dbl> <dbl> <int> <dbl> <dbl> <dbl> <int>
 1 0.23  Ideal     E     SI2      61.5    55   326  3.95  3.98  2.43     1
 2 0.21  Premium   E     SI1      59.8    61   326  3.89  3.84  2.31     2
 3 0.23  Good      E     VS1      56.9    65   327  4.05  4.07  2.31     3
 4 0.290 Premium   I     VS2      62.4    58   334  4.2   4.23  2.63     4
 5 0.31  Good      J     SI2      63.3    58   335  4.34  4.35  2.75     5
 6 0.24  Very Good J     VVS2     62.8    57   336  3.94  3.96  2.48     6
 7 0.24  Very Good I     VVS1     62.3    57   336  3.95  3.98  2.47     7
 8 0.26  Very Good H     SI1      61.9    55   337  4.07  4.11  2.53     8
 9 0.22  Fair      E     VS2      65.1    61   337  3.87  3.78  2.49     9
10 0.23  Very Good H     VS1      59.4    61   338  4     4.05  2.39    10
# ... with 53,930 more rows

Exercise 4¶

In [9]:

airport_locations <- airports %>%
  select(faa, lat, lon)

flights %>%
  select(year:day, hour, origin, dest) %>%
  left_join(airport_locations, by = c("origin" = "faa")) %>%
  left_join(airport_locations, by = c("dest" = "faa")) %>%
  print

# A tibble: 336,776 x 10
    year month   day  hour origin dest  lat.x lon.x lat.y lon.y
   <int> <int> <int> <dbl> <chr>  <chr> <dbl> <dbl> <dbl> <dbl>
 1  2013     1     1     5 EWR    IAH    40.7 -74.2  30.0 -95.3
 2  2013     1     1     5 LGA    IAH    40.8 -73.9  30.0 -95.3
 3  2013     1     1     5 JFK    MIA    40.6 -73.8  25.8 -80.3
 4  2013     1     1     5 JFK    BQN    40.6 -73.8  NA    NA  
 5  2013     1     1     6 LGA    ATL    40.8 -73.9  33.6 -84.4
 6  2013     1     1     5 EWR    ORD    40.7 -74.2  42.0 -87.9
 7  2013     1     1     6 EWR    FLL    40.7 -74.2  26.1 -80.2
 8  2013     1     1     6 LGA    IAD    40.8 -73.9  38.9 -77.5
 9  2013     1     1     6 JFK    MCO    40.6 -73.8  28.4 -81.3
10  2013     1     1     6 LGA    ORD    40.8 -73.9  42.0 -87.9
# ... with 336,766 more rows

This default can be overridden using the suffix argument:

In [10]:

flights %>%
  select(year:day, hour, origin, dest) %>%
  left_join(airport_locations, by = c("origin" = "faa")) %>%
  left_join(airport_locations, by = c("dest" = "faa"),
           suffix = c("_origin", "_dest")) %>%
  print

# A tibble: 336,776 x 10
    year month   day  hour origin dest  lat_origin lon_origin lat_dest lon_dest
   <int> <int> <int> <dbl> <chr>  <chr>      <dbl>      <dbl>    <dbl>    <dbl>
 1  2013     1     1     5 EWR    IAH         40.7      -74.2     30.0    -95.3
 2  2013     1     1     5 LGA    IAH         40.8      -73.9     30.0    -95.3
 3  2013     1     1     5 JFK    MIA         40.6      -73.8     25.8    -80.3
 4  2013     1     1     5 JFK    BQN         40.6      -73.8     NA       NA  
 5  2013     1     1     6 LGA    ATL         40.8      -73.9     33.6    -84.4
 6  2013     1     1     5 EWR    ORD         40.7      -74.2     42.0    -87.9
 7  2013     1     1     6 EWR    FLL         40.7      -74.2     26.1    -80.2
 8  2013     1     1     6 LGA    IAD         40.8      -73.9     38.9    -77.5
 9  2013     1     1     6 JFK    MCO         40.6      -73.8     28.4    -81.3
10  2013     1     1     6 LGA    ORD         40.8      -73.9     42.0    -87.9
# ... with 336,766 more rows
…
In [14]:

planes_w_over_100 <- flights %>%
  group_by(tailnum) %>%
  count() %>%
  filter(n > 100)

In [15]:

flights %>%
  semi_join(planes_w_over_100, by = "tailnum") %>%
  print

# A tibble: 229,202 x 19
    year month   day dep_time sched_dep_time dep_delay arr_time sched_arr_time
   <int> <int> <int>    <int>          <int>     <dbl>    <int>          <int>
 1  2013     1     1      517            515         2      830            819
 2  2013     1     1      533            529         4      850            830
 3  2013     1     1      544            545        -1     1004           1022
 4  2013     1     1      554            558        -4      740            728
 5  2013     1     1      555            600        -5      913            854
 6  2013     1     1      557            600        -3      709            723
 7  2013     1     1      557            600        -3      838            846
 8  2013     1     1      558            600        -2      849            851
 9  2013     1     1      558            600        -2      853            856
10  2013     1     1      558            600        -2      923            937
# ... with 229,192 more rows, and 11 more variables: arr_delay <dbl>,
#   carrier <chr>, flight <int>, tailnum <chr>, origin <chr>, dest <chr>,
#   air_time <dbl>, distance <dbl>, hour <dbl>, minute <dbl>, time_hour <dttm>
…
