09-Data-Manipulation
…
In [28]:

print(airports)

# A tibble: 1,458 x 8
   faa   name                      lat    lon   alt    tz dst   tzone          
   <chr> <chr>                   <dbl>  <dbl> <int> <dbl> <chr> <chr>          
 1 04G   Lansdowne Airport        41.1  -80.6  1044    -5 A     America/New_Yo
 2 06A   Moton Field Municipal   32.5  -85.7   264    -6 A     America/Chicago
 3 06C   Schaumburg Regional      42.0  -88.1   801    -6 A     America/Chicago
 4 06N   Randall Airport          41.4  -74.4   523    -5 A     America/New_Yo
 5 09J   Jekyll Island Airport    31.1  -81.4    11    -5 A     America/New_Yo
 6 0A9   Elizabethton Municipal  36.4  -82.2  1593    -5 A     America/New_Yo
 7 0G6   Williams County Airport  41.5  -84.5   730    -5 A     America/New_Yo
 8 0G7   Finger Lakes Regional   42.9  -76.8   492    -5 A     America/New_Yo
 9 0P2   Shoestring Aviation Ai  39.8  -76.6  1000    -5 U     America/New_Yo
10 0S9   Jefferson County Intl    48.1 -123.    108    -8 A     America/Los_An
# ... with 1,448 more rows

In [29]:

print(planes)

# A tibble: 3,322 x 9
   tailnum  year type         manufacturer   model  engines seats speed engine 
   <chr>   <int> <chr>        <chr>          <chr>    <int> <int> <int> <chr>  
 1 N10156   2004 Fixed wing  EMBRAER        EMB-1       2    55    NA Turbo-
 2 N102UW   1998 Fixed wing  AIRBUS INDUST A320-       2   182    NA Turbo-
 3 N103US   1999 Fixed wing  AIRBUS INDUST A320-       2   182    NA Turbo-
 4 N104UW   1999 Fixed wing  AIRBUS INDUST A320-       2   182    NA Turbo-
 5 N10575   2002 Fixed wing  EMBRAER        EMB-1       2    55    NA Turbo-
 6 N105UW   1999 Fixed wing  AIRBUS INDUST A320-       2   182    NA Turbo-
 7 N107US   1999 Fixed wing  AIRBUS INDUST A320-       2   182    NA Turbo-
 8 N108UW   1999 Fixed wing  AIRBUS INDUST A320-       2   182    NA Turbo-
 9 N109UW   1999 Fixed wing  AIRBUS INDUST A320-       2   182    NA Turbo-
10 N110UW   1999 Fixed wing  AIRBUS INDUST A320-       2   182    NA Turbo-
# ... with 3,312 more rows

In [30]:

print(weather)

# A tibble: 26,115 x 15
   origin  year month   day  hour  temp  dewp humid wind_dir wind_speed
   <chr>  <dbl> <dbl> <int> <int> <dbl> <dbl> <dbl>    <dbl>      <dbl>
 1 EWR     2013     1     1     1  39.0  26.1  59.4      270      10.4 
 2 EWR     2013     1     1     2  39.0  27.0  61.6      250       8.06
 3 EWR     2013     1     1     3  39.0  28.0  64.4      240      11.5 
 4 EWR     2013     1     1     4  39.9  28.0  62.2      250      12.7 
 5 EWR     2013     1     1     5  39.0  28.0  64.4      260      12.7 
 6 EWR     2013     1     1     6  37.9  28.0  67.2      240      11.5 
 7 EWR     2013     1     1     7  39.0  28.0  64.4      240      15.0 
 8 EWR     2013     1     1     8  39.9  28.0  62.2      250      10.4 
 9 EWR     2013     1     1     9  39.9  28.0  62.2      260      15.0 
10 EWR     2013     1     1    10  41    28.0  59.6      260      13.8 
# ... with 26,105 more rows, and 5 more variables: wind_gust <dbl>,
#   precip <dbl>, pressure <dbl>, visib <dbl>, time_hour <dttm>
…
yearmonthdayflightorigindesttailnumn

We should be cautious when defining the primary key (PK) for a table. It could be that for the existing data a combination of variables would work as a PK but it won't stand unique for the future data. If a table lacks a primary key, it's sometimes useful to add one with mutate() and row_number().

In [36]:

flights %>%
  arrange(year, month, day, origin, dest, flight, tailnum) %>%
  mutate(row_n = row_number()) %>%
  select(row_n, everything()) %>%
  print

# A tibble: 336,776 x 20
   row_n  year month   day dep_time sched_dep_time dep_delay arr_time
   <int> <int> <int> <int>    <int>          <int>     <dbl>    <int>
 1     1  2013     1     1     1655           1621        34     1804
 2     2  2013     1     1     1315           1317        -2     1413
 3     3  2013     1     1     2056           2004        52     2156
 4     4  2013     1     1      857            900        -3     1124
 5     5  2013     1     1      615            615         0      833
 6     6  2013     1     1     1547           1545         2     1823
 7     7  2013     1     1     1707           1705         2     1928
 8     8  2013     1     1     1203           1205        -2     1501
 9     9  2013     1     1     1649           1639        10     1937
10    10  2013     1     1     1144           1145        -1     1422
# ... with 336,766 more rows, and 12 more variables: sched_arr_time <int>,
#   arr_delay <dbl>, carrier <chr>, flight <int>, tailnum <chr>, origin <chr>,
#   dest <chr>, air_time <dbl>, distance <dbl>, hour <dbl>, minute <dbl>,
#   time_hour <dttm>
…
	3 x4y4

Defining the key columns¶
The default, by = NULL, uses all variables that appear in both tables, the so called natural join. For example, the flights and weather tables match on their common variables: year, month, day, hour and origin:

In [46]:

flights %>% 
  left_join(weather) %>%
  print

Joining, by = c("year", "month", "day", "origin", "hour", "time_hour")

# A tibble: 336,776 x 28
    year month   day dep_time sched_dep_time dep_delay arr_time sched_arr_time
   <dbl> <dbl> <int>    <int>          <int>     <dbl>    <int>          <int>
 1  2013     1     1      517            515         2      830            819
 2  2013     1     1      533            529         4      850            830
 3  2013     1     1      542            540         2      923            850
 4  2013     1     1      544            545        -1     1004           1022
 5  2013     1     1      554            600        -6      812            837
 6  2013     1     1      554            558        -4      740            728
 7  2013     1     1      555            600        -5      913            854
 8  2013     1     1      557            600        -3      709            723
 9  2013     1     1      557            600        -3      838            846
10  2013     1     1      558            600        -2      753            745
# ... with 336,766 more rows, and 20 more variables: arr_delay <dbl>,
#   carrier <chr>, flight <int>, tailnum <chr>, origin <chr>, dest <chr>,
#   air_time <dbl>, distance <dbl>, hour <dbl>, minute <dbl>, time_hour <dttm>,
#   temp <dbl>, dewp <dbl>, humid <dbl>, wind_dir <dbl>, wind_speed <dbl>,
#   wind_gust <dbl>, precip <dbl>, pressure <dbl>, visib <dbl>

We can also specify what key to use:

In [47]:

flights %>% 
  left_join(planes, by = "tailnum") %>%
  print

# A tibble: 336,776 x 27
   year.x month   day dep_time sched_dep_time dep_delay arr_time sched_arr_time
    <int> <int> <int>    <int>          <int>     <dbl>    <int>          <int>
 1   2013     1     1      517            515         2      830            819
 2   2013     1     1      533            529         4      850            830
 3   2013     1     1      542            540         2      923            850
 4   2013     1     1      544            545        -1     1004           1022
 5   2013     1     1      554            600        -6      812            837
 6   2013     1     1      554            558        -4      740            728
 7   2013     1     1      555            600        -5      913            854
 8   2013     1     1      557            600        -3      709            723
 9   2013     1     1      557            600        -3      838            846
10   2013     1     1      558            600        -2      753            745
# ... with 336,766 more rows, and 19 more variables: arr_delay <dbl>,
#   carrier <chr>, flight <int>, tailnum <chr>, origin <chr>, dest <chr>,
#   air_time <dbl>, distance <dbl>, hour <dbl>, minute <dbl>, time_hour <dttm>,
#   year.y <int>, type <chr>, manufacturer <chr>, model <chr>, engines <int>,
#   seats <int>, speed <int>, engine <chr>

by = c("a" = "b"). This will match variable a in table x to variable b in table y. The variables from x will be used in the output:

In [48]:

flights %>% 
  left_join(airports, by = c("dest" = "faa")) %>%
  print

# A tibble: 336,776 x 26
    year month   day dep_time sched_dep_time dep_delay arr_time sched_arr_time
   <int> <int> <int>    <int>          <int>     <dbl>    <int>          <int>
 1  2013     1     1      517            515         2      830            819
 2  2013     1     1      533            529         4      850            830
 3  2013     1     1      542            540         2      923            850
 4  2013     1     1      544            545        -1     1004           1022
 5  2013     1     1      554            600        -6      812            837
 6  2013     1     1      554            558        -4      740            728
 7  2013     1     1      555            600        -5      913            854
 8  2013     1     1      557            600        -3      709            723
 9  2013     1     1      557            600        -3      838            846
10  2013     1     1      558            600        -2      753            745
# ... with 336,766 more rows, and 18 more variables: arr_delay <dbl>,
#   carrier <chr>, flight <int>, tailnum <chr>, origin <chr>, dest <chr>,
#   air_time <dbl>, distance <dbl>, hour <dbl>, minute <dbl>, time_hour <dttm>,
#   name <chr>, lat <dbl>, lon <dbl>, alt <int>, tz <dbl>, dst <chr>,
#   tzone <chr>
…
The following gives all the flight records to the top 10 destinations:

In [53]:

flights %>% 
  semi_join(top_dest) %>%
  print

Joining, by = "dest"

# A tibble: 141,145 x 19
    year month   day dep_time sched_dep_time dep_delay arr_time sched_arr_time
   <int> <int> <int>    <int>          <int>     <dbl>    <int>          <int>
 1  2013     1     1      542            540         2      923            850
 2  2013     1     1      554            600        -6      812            837
 3  2013     1     1      554            558        -4      740            728
 4  2013     1     1      555            600        -5      913            854
 5  2013     1     1      557            600        -3      838            846
 6  2013     1     1      558            600        -2      753            745
 7  2013     1     1      558            600        -2      924            917
 8  2013     1     1      558            600        -2      923            937
 9  2013     1     1      559            559         0      702            706
10  2013     1     1      600            600         0      851            858
# ... with 141,135 more rows, and 11 more variables: arr_delay <dbl>,
#   carrier <chr>, flight <int>, tailnum <chr>, origin <chr>, dest <chr>,
#   air_time <dbl>, distance <dbl>, hour <dbl>, minute <dbl>, time_hour <dttm>
…
Anti-joins are useful for diagnosing join mismatches. For example, when connecting flights and planes, you might be interested to know that there are many flights that don't have a match in planes:

In [54]:

flights %>%
  anti_join(planes, by = "tailnum") %>%
  count(tailnum, sort = TRUE) %>%
  print

# A tibble: 722 x 2
   tailnum     n
   <chr>   <int>
 1 <NA>     2512
 2 N725MQ    575
 3 N722MQ    513
 4 N723MQ    507
 5 N713MQ    483
 6 N735MQ    396
 7 N0EGMQ    371
 8 N534MQ    364
 9 N542MQ    363
10 N531MQ    349
# ... with 712 more rows
…
